rm *.o rocket_sim
g++ -O2 -I../include -L../lib -std=c++17 -pthread -Wl,-no-as-needed -Wl,-rpath,'$ORIGIN'/../lib main.c -lmujoco -lglfw -o rocket_sim
0.002000, 1.139998, 70.070416, 0.000262, 0.000000, 0.000000
0.004000, 1.279121, 69.628168, 0.000529, 0.000000, 0.000000
0.006000, 1.417377, 69.190618, 0.000765, 0.000000, 0.000000
0.008000, 1.554774, 68.757296, 0.000969, 0.000000, 0.000000
0.010000, 1.691320, 68.327810, 0.001138, 0.000000, 0.000000
0.012000, 1.827020, 67.901851, 0.001272, 0.000000, 0.000000
0.014000, 1.961880, 67.479185, 0.001371, 0.000000, 0.000000
0.016000, 2.095907, 67.059657, 0.001436, 0.000000, 0.000000
0.018000, 2.229104, 66.643181, 0.001470, 0.000000, 0.000000
0.020000, 2.361477, 66.229735, 0.001475, 0.000000, 0.000000
0.022000, 2.493031, 65.819354, 0.001454, 0.000000, 0.000000
0.024000, 2.623771, 65.412118, 0.001411, 0.000000, 0.000000
0.026000, 2.753703, 65.008143, 0.001349, 0.000000, 0.000000
0.028000, 2.882832, 64.607577, 0.001274, 0.000000, 0.000000
0.030000, 3.011165, 64.210582, 0.001188, 0.000000, 0.000000
0.032000, 3.138708, 63.817333, 0.001095, 0.000000, 0.000000
0.034000, 3.265469, 63.428006, 0.001000, 0.000000, 0.000000
0.036000, 3.391454, 63.042770, 0.000906, 0.000000, 0.000000
0.038000, 3.516671, 62.661783, 0.000815, 0.000000, 0.000000
0.040000, 3.641128, 62.285188, 0.000731, 0.000000, 0.000000
0.042000, 3.764835, 61.913105, 0.000656, 0.000000, 0.000000
0.044000, 3.887799, 61.545629, 0.000591, 0.000000, 0.000000
0.046000, 4.010030, 61.182830, 0.000539, 0.000000, 0.000000
0.048000, 4.131536, 60.824750, 0.000499, 0.000000, 0.000000
0.050000, 4.252328, 60.471403, 0.000473, 0.000000, 0.000000
0.052000, 4.372415, 60.122775, 0.000461, 0.000000, 0.000000
0.054000, 4.491806, 59.778826, 0.000462, 0.000000, 0.000000
0.056000, 4.610510, 59.439492, 0.000477, 0.000000, 0.000000
0.058000, 4.728537, 59.104687, 0.000504, 0.000000, 0.000000
0.060000, 4.845896, 58.774304, 0.000542, 0.000000, 0.000000
0.062000, 4.962596, 58.448220, 0.000590, 0.000000, 0.000000
0.064000, 5.078646, 58.126299, 0.000647, 0.000000, 0.000000
0.066000, 5.194053, 57.808395, 0.000712, 0.000000, 0.000000
0.068000, 5.308828, 57.494351, 0.000782, 0.000000, 0.000000
0.070000, 5.422977, 57.184011, 0.000857, 0.000000, 0.000000
0.072000, 5.536508, 56.877213, 0.000935, 0.000000, 0.000000
0.074000, 5.649428, 56.573798, 0.001014, 0.000000, 0.000000
0.076000, 5.761745, 56.273612, 0.001094, 0.000000, 0.000000
0.078000, 5.873465, 55.976504, 0.001173, 0.000000, 0.000000
0.080000, 5.984596, 55.682333, 0.001250, 0.000000, 0.000000
0.082000, 6.095142, 55.390966, 0.001324, 0.000000, 0.000000
0.084000, 6.205110, 55.102280, 0.001394, 0.000000, 0.000000
0.086000, 6.314506, 54.816165, 0.001460, 0.000000, 0.000000
0.088000, 6.423335, 54.532522, 0.001521, 0.000000, 0.000000
0.090000, 6.531602, 54.251264, 0.001576, 0.000000, 0.000000
0.092000, 6.639312, 53.972316, 0.001627, 0.000000, 0.000000
0.094000, 6.746471, 53.695615, 0.001671, 0.000000, 0.000000
0.096000, 6.853083, 53.421110, 0.001711, 0.000000, 0.000000
0.098000, 6.959153, 53.148761, 0.001744, 0.000000, 0.000000
0.100000, 7.064685, 52.878537, 0.001773, 0.000000, 0.000000
0.102000, 7.169684, 52.610419, 0.001798, 0.000000, 0.000000
0.104000, 7.274154, 52.344393, 0.001818, 0.000000, 0.000000
0.106000, 7.378099, 52.080453, 0.001834, 0.000000, 0.000000
0.108000, 7.481525, 51.818601, 0.001847, 0.000000, 0.000000
0.110000, 7.584434, 51.558842, 0.001857, 0.000000, 0.000000
0.112000, 7.686833, 51.301185, 0.001865, 0.000000, 0.000000
0.114000, 7.788724, 51.045642, 0.001871, 0.000000, 0.000000
0.116000, 7.890112, 50.792228, 0.001877, 0.000000, 0.000000
0.118000, 7.991001, 50.540957, 0.001882, 0.000000, 0.000000
0.120000, 8.091397, 50.291845, 0.001886, 0.000000, 0.000000
0.122000, 8.191302, 50.044903, 0.001892, 0.000000, 0.000000
0.124000, 8.290722, 49.800146, 0.001898, 0.000000, 0.000000
0.126000, 8.389661, 49.557583, 0.001905, 0.000000, 0.000000
0.128000, 8.488123, 49.317222, 0.001914, 0.000000, 0.000000
0.130000, 8.586113, 49.079066, 0.001924, 0.000000, 0.000000
0.132000, 8.683635, 48.843118, 0.001937, 0.000000, 0.000000
0.134000, 8.780692, 48.609373, 0.001951, 0.000000, 0.000000
0.136000, 8.877291, 48.377826, 0.001968, 0.000000, 0.000000
0.138000, 8.973434, 48.148466, 0.001987, 0.000000, 0.000000
0.140000, 9.069127, 47.921278, 0.002009, 0.000000, 0.000000
0.142000, 9.164373, 47.696246, 0.002032, 0.000000, 0.000000
0.144000, 9.259176, 47.473348, 0.002057, 0.000000, 0.000000
0.146000, 9.353541, 47.252558, 0.002085, 0.000000, 0.000000
0.148000, 9.447472, 47.033849, 0.002114, 0.000000, 0.000000
0.150000, 9.540973, 46.817190, 0.002144, 0.000000, 0.000000
0.152000, 9.634048, 46.602549, 0.002176, 0.000000, 0.000000
0.154000, 9.726700, 46.389888, 0.002209, 0.000000, 0.000000
0.156000, 9.818934, 46.179172, 0.002242, 0.000000, 0.000000
0.158000, 9.910753, 45.970361, 0.002276, 0.000000, 0.000000
0.160000, 10.002160, 45.763416, 0.002310, 0.000000, 0.000000
0.162000, 10.093160, 45.558296, 0.002344, 0.000000, 0.000000
0.164000, 10.183756, 45.354960, 0.002378, 0.000000, 0.000000
0.166000, 10.273951, 45.153367, 0.002411, 0.000000, 0.000000
0.168000, 10.363749, 44.953476, 0.002443, 0.000000, 0.000000
0.170000, 10.453152, 44.755248, 0.002474, 0.000000, 0.000000
0.172000, 10.542164, 44.558641, 0.002504, 0.000000, 0.000000
0.174000, 10.630789, 44.363619, 0.002532, 0.000000, 0.000000
0.176000, 10.719028, 44.170144, 0.002559, 0.000000, 0.000000
0.178000, 10.806885, 43.978179, 0.002583, 0.000000, 0.000000
0.180000, 10.894363, 43.787691, 0.002606, 0.000000, 0.000000
0.182000, 10.981464, 43.598648, 0.002626, 0.000000, 0.000000
0.184000, 11.068192, 43.411017, 0.002645, 0.000000, 0.000000
0.186000, 11.154548, 43.224772, 0.002661, 0.000000, 0.000000
0.188000, 11.240536, 43.039884, 0.002675, 0.000000, 0.000000
0.190000, 11.326158, 42.856328, 0.002686, 0.000000, 0.000000
0.192000, 11.411417, 42.674082, 0.002696, 0.000000, 0.000000
0.194000, 11.496314, 42.493124, 0.002703, 0.000000, 0.000000
0.196000, 11.580853, 42.313434, 0.002708, 0.000000, 0.000000
0.198000, 11.665036, 42.134996, 0.002710, 0.000000, 0.000000
0.200000, 11.748865, 41.957792, 0.002711, 0.000000, 0.000000
0.202000, 11.832342, 41.781809, 0.002710, 0.000000, 0.000000
0.204000, 11.915471, 41.607034, 0.002707, 0.000000, 0.000000
0.206000, 11.998252, 41.433455, 0.002703, 0.000000, 0.000000
0.208000, 12.080689, 41.261061, 0.002696, 0.000000, 0.000000
0.210000, 12.162783, 41.089844, 0.002689, 0.000000, 0.000000
0.212000, 12.244537, 40.919796, 0.002680, 0.000000, 0.000000
0.214000, 12.325953, 40.750909, 0.002670, 0.000000, 0.000000
0.216000, 12.407033, 40.583176, 0.002659, 0.000000, 0.000000
0.218000, 12.487780, 40.416592, 0.002648, 0.000000, 0.000000
0.220000, 12.568195, 40.251152, 0.002635, 0.000000, 0.000000
0.222000, 12.648281, 40.086849, 0.002623, 0.000000, 0.000000
0.224000, 12.728041, 39.923680, 0.002609, 0.000000, 0.000000
0.226000, 12.807475, 39.761640, 0.002596, 0.000000, 0.000000
0.228000, 12.886587, 39.600724, 0.002583, 0.000000, 0.000000
0.230000, 12.965378, 39.440928, 0.002569, 0.000000, 0.000000
0.232000, 13.043851, 39.282246, 0.002556, 0.000000, 0.000000
0.234000, 13.122008, 39.124675, 0.002543, 0.000000, 0.000000
0.236000, 13.199850, 38.968209, 0.002531, 0.000000, 0.000000
0.238000, 13.277381, 38.812843, 0.002519, 0.000000, 0.000000
0.240000, 13.354603, 38.658570, 0.002507, 0.000000, 0.000000
0.242000, 13.431517, 38.505385, 0.002496, 0.000000, 0.000000
0.244000, 13.508125, 38.353282, 0.002486, 0.000000, 0.000000
0.246000, 13.584430, 38.202253, 0.002477, 0.000000, 0.000000
0.248000, 13.660434, 38.052291, 0.002468, 0.000000, 0.000000
0.250000, 13.736139, 37.903388, 0.002460, 0.000000, 0.000000
0.252000, 13.811547, 37.755536, 0.002453, 0.000000, 0.000000
0.254000, 13.886660, 37.608726, 0.002447, 0.000000, 0.000000
0.256000, 13.961480, 37.462949, 0.002442, 0.000000, 0.000000
0.258000, 14.036010, 37.318195, 0.002437, 0.000000, 0.000000
0.260000, 14.110251, 37.174455, 0.002434, 0.000000, 0.000000
0.262000, 14.184205, 37.031718, 0.002431, 0.000000, 0.000000
0.264000, 14.257874, 36.889972, 0.002429, 0.000000, 0.000000
0.266000, 14.331261, 36.749208, 0.002428, 0.000000, 0.000000
0.268000, 14.404367, 36.609414, 0.002428, 0.000000, 0.000000
0.270000, 14.477194, 36.470579, 0.002428, 0.000000, 0.000000
0.272000, 14.549745, 36.332690, 0.002430, 0.000000, 0.000000
0.274000, 14.622020, 36.195736, 0.002431, 0.000000, 0.000000
0.276000, 14.694023, 36.059704, 0.002434, 0.000000, 0.000000
0.278000, 14.765754, 35.924584, 0.002437, 0.000000, 0.000000
0.280000, 14.837216, 35.790361, 0.002440, 0.000000, 0.000000
0.282000, 14.908411, 35.657025, 0.002444, 0.000000, 0.000000
0.284000, 14.979340, 35.524564, 0.002449, 0.000000, 0.000000
0.286000, 15.050005, 35.392964, 0.002453, 0.000000, 0.000000
0.288000, 15.120408, 35.262214, 0.002458, 0.000000, 0.000000
0.290000, 15.190550, 35.132303, 0.002464, 0.000000, 0.000000
0.292000, 15.260434, 35.003218, 0.002469, 0.000000, 0.000000
0.294000, 15.330061, 34.874948, 0.002475, 0.000000, 0.000000
0.296000, 15.399432, 34.747482, 0.002481, 0.000000, 0.000000
0.298000, 15.468550, 34.620808, 0.002487, 0.000000, 0.000000
0.300000, 15.537415, 34.494915, 0.002493, 0.000000, 0.000000
0.302000, 15.606030, 34.369794, 0.002499, 0.000000, 0.000000
0.304000, 15.674396, 34.245433, 0.002505, 0.000000, 0.000000
0.306000, 15.742515, 34.121823, 0.002511, 0.000000, 0.000000
0.308000, 15.810388, 33.998954, 0.002517, 0.000000, 0.000000
0.310000, 15.878016, 33.876816, 0.002523, 0.000000, 0.000000
0.312000, 15.945402, 33.755401, 0.002529, 0.000000, 0.000000
0.314000, 16.012546, 33.634699, 0.002534, 0.000000, 0.000000
0.316000, 16.079451, 33.514702, 0.002540, 0.000000, 0.000000
0.318000, 16.146117, 33.395402, 0.002545, 0.000000, 0.000000
0.320000, 16.212546, 33.276791, 0.002551, 0.000000, 0.000000
0.322000, 16.278739, 33.158861, 0.002556, 0.000000, 0.000000
0.324000, 16.344698, 33.041605, 0.002560, 0.000000, 0.000000
0.326000, 16.410425, 32.925017, 0.002565, 0.000000, 0.000000
0.328000, 16.475919, 32.809089, 0.002570, 0.000000, 0.000000
0.330000, 16.541184, 32.693816, 0.002574, 0.000000, 0.000000
0.332000, 16.606220, 32.579190, 0.002578, 0.000000, 0.000000
0.334000, 16.671028, 32.465207, 0.002582, 0.000000, 0.000000
0.336000, 16.735611, 32.351859, 0.002586, 0.000000, 0.000000
0.338000, 16.799968, 32.239143, 0.002589, 0.000000, 0.000000
0.340000, 16.864102, 32.127053, 0.002593, 0.000000, 0.000000
0.342000, 16.928013, 32.015584, 0.002596, 0.000000, 0.000000
0.344000, 16.991704, 31.904731, 0.002599, 0.000000, 0.000000
0.346000, 17.055174, 31.794489, 0.002602, 0.000000, 0.000000
0.348000, 17.118426, 31.684854, 0.002605, 0.000000, 0.000000
0.350000, 17.181461, 31.575821, 0.002608, 0.000000, 0.000000
0.352000, 17.244279, 31.467386, 0.002611, 0.000000, 0.000000
0.354000, 17.306882, 31.359546, 0.002614, 0.000000, 0.000000
0.356000, 17.369272, 31.252296, 0.002616, 0.000000, 0.000000
0.358000, 17.431449, 31.145632, 0.002619, 0.000000, 0.000000
0.360000, 17.493415, 31.039550, 0.002621, 0.000000, 0.000000
0.362000, 17.555170, 30.934047, 0.002624, 0.000000, 0.000000
0.364000, 17.616717, 30.829119, 0.002626, 0.000000, 0.000000
0.366000, 17.678055, 30.724761, 0.002629, 0.000000, 0.000000
0.368000, 17.739187, 30.620971, 0.002632, 0.000000, 0.000000
0.370000, 17.800113, 30.517745, 0.002634, 0.000000, 0.000000
0.372000, 17.860835, 30.415079, 0.002637, 0.000000, 0.000000
0.374000, 17.921353, 30.312970, 0.002640, 0.000000, 0.000000
0.376000, 17.981669, 30.211413, 0.002642, 0.000000, 0.000000
0.378000, 18.041784, 30.110406, 0.002645, 0.000000, 0.000000
0.380000, 18.101698, 30.009944, 0.002648, 0.000000, 0.000000
0.382000, 18.161414, 29.910024, 0.002651, 0.000000, 0.000000
0.384000, 18.220931, 29.810642, 0.002654, 0.000000, 0.000000
0.386000, 18.280252, 29.711795, 0.002657, 0.000000, 0.000000
0.388000, 18.339377, 29.613478, 0.002660, 0.000000, 0.000000
0.390000, 18.398307, 29.515689, 0.002663, 0.000000, 0.000000
0.392000, 18.457044, 29.418423, 0.002667, 0.000000, 0.000000
0.394000, 18.515588, 29.321676, 0.002670, 0.000000, 0.000000
0.396000, 18.573940, 29.225445, 0.002673, 0.000000, 0.000000
0.398000, 18.632101, 29.129725, 0.002677, 0.000000, 0.000000
0.400000, 18.690073, 29.034513, 0.002680, 0.000000, 0.000000
0.402000, 18.747856, 28.939805, 0.002684, 0.000000, 0.000000
0.404000, 18.805452, 28.845596, 0.002688, 0.000000, 0.000000
0.406000, 18.862861, 28.751884, 0.002692, 0.000000, 0.000000
0.408000, 18.920084, 28.658663, 0.002695, 0.000000, 0.000000
0.410000, 18.977122, 28.565929, 0.002699, 0.000000, 0.000000
0.412000, 19.033977, 28.473679, 0.002703, 0.000000, 0.000000
0.414000, 19.090649, 28.381909, 0.002707, 0.000000, 0.000000
0.416000, 19.147139, 28.290614, 0.002711, 0.000000, 0.000000
0.418000, 19.203448, 28.199791, 0.002715, 0.000000, 0.000000
0.420000, 19.259577, 28.109434, 0.002719, 0.000000, 0.000000
0.422000, 19.315527, 28.019540, 0.002723, 0.000000, 0.000000
0.424000, 19.371299, 27.930106, 0.002727, 0.000000, 0.000000
0.426000, 19.426893, 27.841126, 0.002731, 0.000000, 0.000000
0.428000, 19.482311, 27.752596, 0.002735, 0.000000, 0.000000
0.430000, 19.537554, 27.664513, 0.002738, 0.000000, 0.000000
0.432000, 19.592622, 27.576873, 0.002742, 0.000000, 0.000000
0.434000, 19.647516, 27.489670, 0.002746, 0.000000, 0.000000
0.436000, 19.702237, 27.402902, 0.002750, 0.000000, 0.000000
0.438000, 19.756786, 27.316565, 0.002753, 0.000000, 0.000000
0.440000, 19.811163, 27.230653, 0.002757, 0.000000, 0.000000
0.442000, 19.865371, 27.145164, 0.002760, 0.000000, 0.000000
0.444000, 19.919408, 27.060093, 0.002764, 0.000000, 0.000000
0.446000, 19.973277, 26.975436, 0.002767, 0.000000, 0.000000
0.448000, 20.026978, 26.891190, 0.002770, 0.000000, 0.000000
0.450000, 20.080512, 26.807351, 0.002773, 0.000000, 0.000000
0.452000, 20.133879, 26.723915, 0.002776, 0.000000, 0.000000
0.454000, 20.187081, 26.640877, 0.002779, 0.000000, 0.000000
0.456000, 20.240118, 26.558236, 0.002781, 0.000000, 0.000000
0.458000, 20.292990, 26.475986, 0.002784, 0.000000, 0.000000
0.460000, 20.345700, 26.394125, 0.002786, 0.000000, 0.000000
0.462000, 20.398247, 26.312648, 0.002789, 0.000000, 0.000000
0.464000, 20.450632, 26.231553, 0.002791, 0.000000, 0.000000
0.466000, 20.502856, 26.150835, 0.002793, 0.000000, 0.000000
0.468000, 20.554920, 26.070493, 0.002794, 0.000000, 0.000000
0.470000, 20.606824, 25.990521, 0.002796, 0.000000, 0.000000
0.472000, 20.658569, 25.910917, 0.002798, 0.000000, 0.000000
0.474000, 20.710156, 25.831678, 0.002799, 0.000000, 0.000000
0.476000, 20.761586, 25.752801, 0.002800, 0.000000, 0.000000
0.478000, 20.812859, 25.674283, 0.002801, 0.000000, 0.000000
0.480000, 20.863975, 25.596120, 0.002802, 0.000000, 0.000000
0.482000, 20.914937, 25.518309, 0.002803, 0.000000, 0.000000
0.484000, 20.965744, 25.440848, 0.002803, 0.000000, 0.000000
0.486000, 21.016396, 25.363734, 0.002804, 0.000000, 0.000000
0.488000, 21.066896, 25.286964, 0.002804, 0.000000, 0.000000
0.490000, 21.117243, 25.210536, 0.002804, 0.000000, 0.000000
0.492000, 21.167437, 25.134445, 0.002804, 0.000000, 0.000000
0.494000, 21.217481, 25.058691, 0.002804, 0.000000, 0.000000
0.496000, 21.267374, 24.983271, 0.002804, 0.000000, 0.000000
0.498000, 21.317116, 24.908181, 0.002804, 0.000000, 0.000000
0.500000, 21.366710, 24.833419, 0.002803, 0.000000, 0.000000
0.502000, 21.416154, 24.758983, 0.002802, 0.000000, 0.000000
0.504000, 21.465451, 24.684871, 0.002802, 0.000000, 0.000000
0.506000, 21.514600, 24.611080, 0.002801, 0.000000, 0.000000
0.508000, 21.563602, 24.537608, 0.002800, 0.000000, 0.000000
0.510000, 21.612458, 24.464452, 0.002799, 0.000000, 0.000000
0.512000, 21.661168, 24.391611, 0.002798, 0.000000, 0.000000
0.514000, 21.709733, 24.319082, 0.002797, 0.000000, 0.000000
0.516000, 21.758154, 24.246863, 0.002795, 0.000000, 0.000000
0.518000, 21.806431, 24.174951, 0.002794, 0.000000, 0.000000
0.520000, 21.854565, 24.103346, 0.002792, 0.000000, 0.000000
0.522000, 21.902556, 24.032044, 0.002791, 0.000000, 0.000000
0.524000, 21.950405, 23.961044, 0.002789, 0.000000, 0.000000
0.526000, 21.998113, 23.890344, 0.002788, 0.000000, 0.000000
0.528000, 22.045679, 23.819941, 0.002786, 0.000000, 0.000000
0.530000, 22.093106, 23.749834, 0.002784, 0.000000, 0.000000
0.532000, 22.140393, 23.680021, 0.002782, 0.000000, 0.000000
0.534000, 22.187541, 23.610501, 0.002780, 0.000000, 0.000000
0.536000, 22.234550, 23.541270, 0.002779, 0.000000, 0.000000
0.538000, 22.281421, 23.472328, 0.002777, 0.000000, 0.000000
0.540000, 22.328155, 23.403672, 0.002775, 0.000000, 0.000000
0.542000, 22.374752, 23.335300, 0.002773, 0.000000, 0.000000
0.544000, 22.421213, 23.267212, 0.002771, 0.000000, 0.000000
0.546000, 22.467538, 23.199405, 0.002769, 0.000000, 0.000000
0.548000, 22.513728, 23.131876, 0.002767, 0.000000, 0.000000
0.550000, 22.559783, 23.064626, 0.002765, 0.000000, 0.000000
0.552000, 22.605705, 22.997651, 0.002763, 0.000000, 0.000000
0.554000, 22.651492, 22.930951, 0.002761, 0.000000, 0.000000
0.556000, 22.697147, 22.864523, 0.002759, 0.000000, 0.000000
0.558000, 22.742669, 22.798366, 0.002757, 0.000000, 0.000000
0.560000, 22.788059, 22.732477, 0.002755, 0.000000, 0.000000
0.562000, 22.833318, 22.666856, 0.002753, 0.000000, 0.000000
0.564000, 22.878446, 22.601501, 0.002752, 0.000000, 0.000000
0.566000, 22.923444, 22.536410, 0.002750, 0.000000, 0.000000
0.568000, 22.968312, 22.471581, 0.002748, 0.000000, 0.000000
0.570000, 23.013050, 22.407012, 0.002746, 0.000000, 0.000000
0.572000, 23.057660, 22.342703, 0.002745, 0.000000, 0.000000
0.574000, 23.102141, 22.278651, 0.002743, 0.000000, 0.000000
0.576000, 23.146495, 22.214855, 0.002741, 0.000000, 0.000000
0.578000, 23.190721, 22.151314, 0.002740, 0.000000, 0.000000
0.580000, 23.234821, 22.088024, 0.002738, 0.000000, 0.000000
0.582000, 23.278794, 22.024986, 0.002737, 0.000000, 0.000000
0.584000, 23.322642, 21.962197, 0.002735, 0.000000, 0.000000
0.586000, 23.366364, 21.899656, 0.002734, 0.000000, 0.000000
0.588000, 23.409962, 21.837361, 0.002733, 0.000000, 0.000000
0.590000, 23.453435, 21.775310, 0.002731, 0.000000, 0.000000
0.592000, 23.496785, 21.713503, 0.002730, 0.000000, 0.000000
0.594000, 23.540011, 21.651937, 0.002729, 0.000000, 0.000000
0.596000, 23.583114, 21.590610, 0.002728, 0.000000, 0.000000
0.598000, 23.626095, 21.529522, 0.002727, 0.000000, 0.000000
0.600000, 23.668954, 21.468671, 0.002726, 0.000000, 0.000000
0.602000, 23.711692, 21.408055, 0.002725, 0.000000, 0.000000
0.604000, 23.754308, 21.347672, 0.002724, 0.000000, 0.000000
0.606000, 23.796804, 21.287522, 0.002723, 0.000000, 0.000000
0.608000, 23.839181, 21.227601, 0.002722, 0.000000, 0.000000
0.610000, 23.881437, 21.167910, 0.002722, 0.000000, 0.000000
0.612000, 23.923575, 21.108447, 0.002721, 0.000000, 0.000000
0.614000, 23.965594, 21.049209, 0.002720, 0.000000, 0.000000
0.616000, 24.007494, 20.990195, 0.002720, 0.000000, 0.000000
0.618000, 24.049277, 20.931405, 0.002719, 0.000000, 0.000000
0.620000, 24.090943, 20.872836, 0.002719, 0.000000, 0.000000
0.622000, 24.132492, 20.814487, 0.002718, 0.000000, 0.000000
0.624000, 24.173924, 20.756356, 0.002718, 0.000000, 0.000000
0.626000, 24.215240, 20.698442, 0.002718, 0.000000, 0.000000
0.628000, 24.256441, 20.640744, 0.002717, 0.000000, 0.000000
0.630000, 24.297527, 20.583260, 0.002717, 0.000000, 0.000000
0.632000, 24.338498, 20.525988, 0.002717, 0.000000, 0.000000
0.634000, 24.379354, 20.468927, 0.002717, 0.000000, 0.000000
0.636000, 24.420097, 20.412076, 0.002717, 0.000000, 0.000000
0.638000, 24.460727, 20.355434, 0.002717, 0.000000, 0.000000
0.640000, 24.501243, 20.298998, 0.002717, 0.000000, 0.000000
0.642000, 24.541647, 20.242768, 0.002717, 0.000000, 0.000000
0.644000, 24.581939, 20.186741, 0.002717, 0.000000, 0.000000
0.646000, 24.622119, 20.130918, 0.002717, 0.000000, 0.000000
0.648000, 24.662187, 20.075296, 0.002717, 0.000000, 0.000000
0.650000, 24.702145, 20.019873, 0.002717, 0.000000, 0.000000
0.652000, 24.741992, 19.964650, 0.002717, 0.000000, 0.000000
0.654000, 24.781729, 19.909623, 0.002717, 0.000000, 0.000000
0.656000, 24.821356, 19.854793, 0.002718, 0.000000, 0.000000
0.658000, 24.860874, 19.800157, 0.002718, 0.000000, 0.000000
0.660000, 24.900283, 19.745714, 0.002718, 0.000000, 0.000000
0.662000, 24.939583, 19.691464, 0.002718, 0.000000, 0.000000
0.664000, 24.978775, 19.637404, 0.002719, 0.000000, 0.000000
0.666000, 25.017859, 19.583533, 0.002719, 0.000000, 0.000000
0.668000, 25.056836, 19.529851, 0.002719, 0.000000, 0.000000
0.670000, 25.095706, 19.476356, 0.002720, 0.000000, 0.000000
0.672000, 25.134469, 19.423046, 0.002720, 0.000000, 0.000000
0.674000, 25.173126, 19.369921, 0.002721, 0.000000, 0.000000
0.676000, 25.211677, 19.316980, 0.002721, 0.000000, 0.000000
0.678000, 25.250122, 19.264220, 0.002722, 0.000000, 0.000000
0.680000, 25.288462, 19.211641, 0.002722, 0.000000, 0.000000
0.682000, 25.326698, 19.159242, 0.002722, 0.000000, 0.000000
0.684000, 25.364828, 19.107021, 0.002723, 0.000000, 0.000000
0.686000, 25.402855, 19.054978, 0.002723, 0.000000, 0.000000
0.688000, 25.440778, 19.003111, 0.002724, 0.000000, 0.000000
0.690000, 25.478598, 18.951420, 0.002724, 0.000000, 0.000000
0.692000, 25.516314, 18.899902, 0.002725, 0.000000, 0.000000
0.694000, 25.553928, 18.848557, 0.002725, 0.000000, 0.000000
0.696000, 25.591439, 18.797384, 0.002726, 0.000000, 0.000000
0.698000, 25.628849, 18.746381, 0.002727, 0.000000, 0.000000
0.700000, 25.666157, 18.695548, 0.002727, 0.000000, 0.000000
0.702000, 25.703363, 18.644884, 0.002728, 0.000000, 0.000000
0.704000, 25.740469, 18.594387, 0.002728, 0.000000, 0.000000
0.706000, 25.777474, 18.544057, 0.002729, 0.000000, 0.000000
0.708000, 25.814378, 18.493892, 0.002729, 0.000000, 0.000000
0.710000, 25.851183, 18.443892, 0.002730, 0.000000, 0.000000
0.712000, 25.887888, 18.394055, 0.002730, 0.000000, 0.000000
0.714000, 25.924494, 18.344381, 0.002731, 0.000000, 0.000000
0.716000, 25.961000, 18.294868, 0.002732, 0.000000, 0.000000
0.718000, 25.997408, 18.245515, 0.002732, 0.000000, 0.000000
0.720000, 26.033718, 18.196322, 0.002733, 0.000000, 0.000000
0.722000, 26.069930, 18.147288, 0.002733, 0.000000, 0.000000
0.724000, 26.106044, 18.098411, 0.002734, 0.000000, 0.000000
0.726000, 26.142060, 18.049691, 0.002734, 0.000000, 0.000000
0.728000, 26.177980, 18.001127, 0.002735, 0.000000, 0.000000
0.730000, 26.213803, 17.952717, 0.002735, 0.000000, 0.000000
0.732000, 26.249529, 17.904462, 0.002736, 0.000000, 0.000000
0.734000, 26.285159, 17.856359, 0.002737, 0.000000, 0.000000
0.736000, 26.320693, 17.808409, 0.002737, 0.000000, 0.000000
0.738000, 26.356132, 17.760610, 0.002738, 0.000000, 0.000000
0.740000, 26.391476, 17.712961, 0.002738, 0.000000, 0.000000
0.742000, 26.426725, 17.665462, 0.002739, 0.000000, 0.000000
0.744000, 26.461879, 17.618111, 0.002739, 0.000000, 0.000000
0.746000, 26.496938, 17.570908, 0.002740, 0.000000, 0.000000
0.748000, 26.531904, 17.523853, 0.002740, 0.000000, 0.000000
0.750000, 26.566776, 17.476943, 0.002741, 0.000000, 0.000000
0.752000, 26.601555, 17.430179, 0.002742, 0.000000, 0.000000
0.754000, 26.636240, 17.383559, 0.002742, 0.000000, 0.000000
0.756000, 26.670833, 17.337083, 0.002743, 0.000000, 0.000000
0.758000, 26.705333, 17.290750, 0.002743, 0.000000, 0.000000
0.760000, 26.739741, 17.244560, 0.002744, 0.000000, 0.000000
0.762000, 26.774056, 17.198510, 0.002744, 0.000000, 0.000000
0.764000, 26.808281, 17.152601, 0.002745, 0.000000, 0.000000
0.766000, 26.842413, 17.106832, 0.002745, 0.000000, 0.000000
0.768000, 26.876455, 17.061201, 0.002746, 0.000000, 0.000000
0.770000, 26.910405, 17.015709, 0.002746, 0.000000, 0.000000
0.772000, 26.944265, 16.970355, 0.002747, 0.000000, 0.000000
0.774000, 26.978035, 16.925137, 0.002748, 0.000000, 0.000000
0.776000, 27.011715, 16.880055, 0.002748, 0.000000, 0.000000
0.778000, 27.045304, 16.835109, 0.002749, 0.000000, 0.000000
0.780000, 27.078805, 16.790297, 0.002749, 0.000000, 0.000000
0.782000, 27.112216, 16.745619, 0.002750, 0.000000, 0.000000
0.784000, 27.145538, 16.701073, 0.002750, 0.000000, 0.000000
0.786000, 27.178772, 16.656661, 0.002751, 0.000000, 0.000000
0.788000, 27.211917, 16.612380, 0.002751, 0.000000, 0.000000
0.790000, 27.244973, 16.568229, 0.002752, 0.000000, 0.000000
0.792000, 27.277942, 16.524209, 0.002752, 0.000000, 0.000000
0.794000, 27.310824, 16.480319, 0.002753, 0.000000, 0.000000
0.796000, 27.343617, 16.436558, 0.002753, 0.000000, 0.000000
0.798000, 27.376324, 16.392924, 0.002754, 0.000000, 0.000000
0.800000, 27.408944, 16.349418, 0.002754, 0.000000, 0.000000
0.802000, 27.441477, 16.306039, 0.002755, 0.000000, 0.000000
0.804000, 27.473924, 16.262786, 0.002755, 0.000000, 0.000000
0.806000, 27.506285, 16.219659, 0.002756, 0.000000, 0.000000
0.808000, 27.538560, 16.176656, 0.002757, 0.000000, 0.000000
0.810000, 27.570749, 16.133777, 0.002757, 0.000000, 0.000000
0.812000, 27.602853, 16.091022, 0.002758, 0.000000, 0.000000
0.814000, 27.634871, 16.048390, 0.002758, 0.000000, 0.000000
0.816000, 27.666805, 16.005880, 0.002759, 0.000000, 0.000000
0.818000, 27.698654, 15.963491, 0.002759, 0.000000, 0.000000
0.820000, 27.730419, 15.921223, 0.002760, 0.000000, 0.000000
0.822000, 27.762100, 15.879076, 0.002760, 0.000000, 0.000000
0.824000, 27.793697, 15.837048, 0.002761, 0.000000, 0.000000
0.826000, 27.825209, 15.795139, 0.002761, 0.000000, 0.000000
0.828000, 27.856639, 15.753349, 0.002762, 0.000000, 0.000000
0.830000, 27.887985, 15.711676, 0.002762, 0.000000, 0.000000
0.832000, 27.919249, 15.670120, 0.002763, 0.000000, 0.000000
0.834000, 27.950429, 15.628681, 0.002763, 0.000000, 0.000000
0.836000, 27.981527, 15.587357, 0.002764, 0.000000, 0.000000
0.838000, 28.012543, 15.546149, 0.002764, 0.000000, 0.000000
0.840000, 28.043477, 15.505056, 0.002765, 0.000000, 0.000000
0.842000, 28.074329, 15.464076, 0.002765, 0.000000, 0.000000
0.844000, 28.105099, 15.423210, 0.002766, 0.000000, 0.000000
0.846000, 28.135788, 15.382457, 0.002767, 0.000000, 0.000000
0.848000, 28.166396, 15.341816, 0.002767, 0.000000, 0.000000
0.850000, 28.196922, 15.301287, 0.002768, 0.000000, 0.000000
0.852000, 28.227369, 15.260869, 0.002768, 0.000000, 0.000000
0.854000, 28.257734, 15.220561, 0.002769, 0.000000, 0.000000
0.856000, 28.288019, 15.180363, 0.002769, 0.000000, 0.000000
0.858000, 28.318225, 15.140275, 0.002770, 0.000000, 0.000000
0.860000, 28.348350, 15.100295, 0.002770, 0.000000, 0.000000
0.862000, 28.378396, 15.060424, 0.002771, 0.000000, 0.000000
0.864000, 28.408362, 15.020660, 0.002771, 0.000000, 0.000000
0.866000, 28.438250, 14.981003, 0.002772, 0.000000, 0.000000
0.868000, 28.468058, 14.941452, 0.002772, 0.000000, 0.000000
0.870000, 28.497787, 14.902008, 0.002773, 0.000000, 0.000000
0.872000, 28.527438, 14.862669, 0.002773, 0.000000, 0.000000
0.874000, 28.557011, 14.823434, 0.002774, 0.000000, 0.000000
0.876000, 28.586505, 14.784304, 0.002774, 0.000000, 0.000000
0.878000, 28.615921, 14.745278, 0.002775, 0.000000, 0.000000
0.880000, 28.645260, 14.706355, 0.002775, 0.000000, 0.000000
0.882000, 28.674521, 14.667534, 0.002776, 0.000000, 0.000000
0.884000, 28.703705, 14.628816, 0.002776, 0.000000, 0.000000
0.886000, 28.732812, 14.590199, 0.002777, 0.000000, 0.000000
0.888000, 28.761841, 14.551683, 0.002777, 0.000000, 0.000000
0.890000, 28.790795, 14.513267, 0.002778, 0.000000, 0.000000
0.892000, 28.819671, 14.474952, 0.002778, 0.000000, 0.000000
0.894000, 28.848471, 14.436735, 0.002778, 0.000000, 0.000000
0.896000, 28.877195, 14.398618, 0.002779, 0.000000, 0.000000
0.898000, 28.905843, 14.360599, 0.002779, 0.000000, 0.000000
0.900000, 28.934416, 14.322678, 0.002780, 0.000000, 0.000000
0.902000, 28.962912, 14.284855, 0.002780, 0.000000, 0.000000
0.904000, 28.991334, 14.247128, 0.002781, 0.000000, 0.000000
0.906000, 29.019680, 14.209497, 0.002781, 0.000000, 0.000000
0.908000, 29.047951, 14.171962, 0.002781, 0.000000, 0.000000
0.910000, 29.076148, 14.134523, 0.002782, 0.000000, 0.000000
0.912000, 29.104270, 14.097179, 0.002782, 0.000000, 0.000000
0.914000, 29.132317, 14.059928, 0.002783, 0.000000, 0.000000
0.916000, 29.160291, 14.022772, 0.002783, 0.000000, 0.000000
0.918000, 29.188190, 13.985709, 0.002784, 0.000000, 0.000000
0.920000, 29.216015, 13.948739, 0.002784, 0.000000, 0.000000
0.922000, 29.243767, 13.911861, 0.002784, 0.000000, 0.000000
0.924000, 29.271445, 13.875075, 0.002785, 0.000000, 0.000000
0.926000, 29.299050, 13.838380, 0.002785, 0.000000, 0.000000
0.928000, 29.326582, 13.801777, 0.002785, 0.000000, 0.000000
0.930000, 29.354040, 13.765264, 0.002786, 0.000000, 0.000000
0.932000, 29.381426, 13.728841, 0.002786, 0.000000, 0.000000
0.934000, 29.408740, 13.692507, 0.002786, 0.000000, 0.000000
0.936000, 29.435981, 13.656262, 0.002787, 0.000000, 0.000000
0.938000, 29.463149, 13.620107, 0.002787, 0.000000, 0.000000
0.940000, 29.490246, 13.584039, 0.002787, 0.000000, 0.000000
0.942000, 29.517271, 13.548059, 0.002788, 0.000000, 0.000000
0.944000, 29.544224, 13.512166, 0.002788, 0.000000, 0.000000
0.946000, 29.571105, 13.476360, 0.002788, 0.000000, 0.000000
0.948000, 29.597916, 13.440640, 0.002788, 0.000000, 0.000000
0.950000, 29.624654, 13.405006, 0.002789, 0.000000, 0.000000
0.952000, 29.651322, 13.369458, 0.002789, 0.000000, 0.000000
0.954000, 29.677919, 13.333994, 0.002789, 0.000000, 0.000000
0.956000, 29.704446, 13.298615, 0.002790, 0.000000, 0.000000
0.958000, 29.730901, 13.263321, 0.002790, 0.000000, 0.000000
0.960000, 29.757287, 13.228110, 0.002790, 0.000000, 0.000000
0.962000, 29.783602, 13.192982, 0.002790, 0.000000, 0.000000
0.964000, 29.809847, 13.157937, 0.002790, 0.000000, 0.000000
0.966000, 29.836022, 13.122974, 0.002791, 0.000000, 0.000000
0.968000, 29.862128, 13.088094, 0.002791, 0.000000, 0.000000
0.970000, 29.888164, 13.053295, 0.002791, 0.000000, 0.000000
0.972000, 29.914130, 13.018578, 0.002791, 0.000000, 0.000000
0.974000, 29.940027, 12.983941, 0.002791, 0.000000, 0.000000
0.976000, 29.965856, 12.949384, 0.002791, 0.000000, 0.000000
0.978000, 29.991615, 12.914908, 0.002792, 0.000000, 0.000000
0.980000, 30.017306, 12.880511, 0.002792, 0.000000, 0.000000
0.982000, 30.042927, 12.846193, 0.002792, 0.000000, 0.000000
0.984000, 30.068481, 12.811954, 0.002792, 0.000000, 0.000000
0.986000, 30.093966, 12.777793, 0.002792, 0.000000, 0.000000
0.988000, 30.119383, 12.743710, 0.002792, 0.000000, 0.000000
0.990000, 30.144732, 12.709705, 0.002792, 0.000000, 0.000000
0.992000, 30.170013, 12.675777, 0.002792, 0.000000, 0.000000
0.994000, 30.195227, 12.641925, 0.002793, 0.000000, 0.000000
0.996000, 30.220373, 12.608151, 0.002793, 0.000000, 0.000000
0.998000, 30.245452, 12.574452, 0.002793, 0.000000, 0.000000
1.000000, 30.270463, 12.540829, 0.002793, 0.000000, 0.000000
1.002000, 30.295407, 12.507281, 0.002793, 0.000000, 0.000000
1.004000, 30.320285, 12.473808, 0.002793, 0.000000, 0.000000
1.006000, 30.345095, 12.440409, 0.002793, 0.000000, 0.000000
1.008000, 30.369839, 12.407085, 0.002793, 0.000000, 0.000000
1.010000, 30.394517, 12.373835, 0.002793, 0.000000, 0.000000
1.012000, 30.419128, 12.340658, 0.002793, 0.000000, 0.000000
1.014000, 30.443673, 12.307554, 0.002793, 0.000000, 0.000000
1.016000, 30.468152, 12.274522, 0.002793, 0.000000, 0.000000
1.018000, 30.492564, 12.241563, 0.002793, 0.000000, 0.000000
1.020000, 30.516912, 12.208677, 0.002793, 0.000000, 0.000000
1.022000, 30.541193, 12.175861, 0.002793, 0.000000, 0.000000
1.024000, 30.565409, 12.143117, 0.002793, 0.000000, 0.000000
1.026000, 30.589560, 12.110444, 0.002793, 0.000000, 0.000000
1.028000, 30.613645, 12.077842, 0.002793, 0.000000, 0.000000
1.030000, 30.637666, 12.045310, 0.002793, 0.000000, 0.000000
1.032000, 30.661621, 12.012848, 0.002793, 0.000000, 0.000000
1.034000, 30.685512, 11.980455, 0.002793, 0.000000, 0.000000
1.036000, 30.709338, 11.948132, 0.002792, 0.000000, 0.000000
1.038000, 30.733099, 11.915877, 0.002792, 0.000000, 0.000000
1.040000, 30.756796, 11.883691, 0.002792, 0.000000, 0.000000
1.042000, 30.780429, 11.851574, 0.002792, 0.000000, 0.000000
1.044000, 30.803998, 11.819524, 0.002792, 0.000000, 0.000000
1.046000, 30.827502, 11.787542, 0.002792, 0.000000, 0.000000
1.048000, 30.850943, 11.755627, 0.002792, 0.000000, 0.000000
1.050000, 30.874320, 11.723779, 0.002792, 0.000000, 0.000000
1.052000, 30.897634, 11.691998, 0.002792, 0.000000, 0.000000
1.054000, 30.920884, 11.660283, 0.002791, 0.000000, 0.000000
1.056000, 30.944071, 11.628634, 0.002791, 0.000000, 0.000000
1.058000, 30.967194, 11.597051, 0.002791, 0.000000, 0.000000
1.060000, 30.990255, 11.565533, 0.002791, 0.000000, 0.000000
1.062000, 31.013252, 11.534080, 0.002791, 0.000000, 0.000000
1.064000, 31.036187, 11.502692, 0.002791, 0.000000, 0.000000
1.066000, 31.059059, 11.471368, 0.002790, 0.000000, 0.000000
1.068000, 31.081868, 11.440108, 0.002790, 0.000000, 0.000000
1.070000, 31.104615, 11.408913, 0.002790, 0.000000, 0.000000
1.072000, 31.127300, 11.377781, 0.002790, 0.000000, 0.000000
1.074000, 31.149923, 11.346712, 0.002790, 0.000000, 0.000000
1.076000, 31.172483, 11.315706, 0.002790, 0.000000, 0.000000
1.078000, 31.194982, 11.284762, 0.002789, 0.000000, 0.000000
1.080000, 31.217419, 11.253881, 0.002789, 0.000000, 0.000000
1.082000, 31.239794, 11.223062, 0.002789, 0.000000, 0.000000
1.084000, 31.262107, 11.192305, 0.002789, 0.000000, 0.000000
1.086000, 31.284359, 11.161609, 0.002788, 0.000000, 0.000000
1.088000, 31.306550, 11.130975, 0.002788, 0.000000, 0.000000
1.090000, 31.328679, 11.100401, 0.002788, 0.000000, 0.000000
1.092000, 31.350748, 11.069888, 0.002788, 0.000000, 0.000000
1.094000, 31.372755, 11.039435, 0.002788, 0.000000, 0.000000
1.096000, 31.394702, 11.009043, 0.002787, 0.000000, 0.000000
1.098000, 31.416588, 10.978710, 0.002787, 0.000000, 0.000000
1.100000, 31.438413, 10.948436, 0.002787, 0.000000, 0.000000
1.102000, 31.460178, 10.918222, 0.002787, 0.000000, 0.000000
1.104000, 31.481883, 10.888067, 0.002786, 0.000000, 0.000000
1.106000, 31.503527, 10.857970, 0.002786, 0.000000, 0.000000
1.108000, 31.525111, 10.827932, 0.002786, 0.000000, 0.000000
1.110000, 31.546635, 10.797952, 0.002786, 0.000000, 0.000000
1.112000, 31.568099, 10.768030, 0.002785, 0.000000, 0.000000
1.114000, 31.589503, 10.738165, 0.002785, 0.000000, 0.000000
1.116000, 31.610848, 10.708358, 0.002785, 0.000000, 0.000000
1.118000, 31.632133, 10.678608, 0.002785, 0.000000, 0.000000
1.120000, 31.653359, 10.648915, 0.002784, 0.000000, 0.000000
1.122000, 31.674525, 10.619278, 0.002784, 0.000000, 0.000000
1.124000, 31.695632, 10.589697, 0.002784, 0.000000, 0.000000
1.126000, 31.716680, 10.560173, 0.002783, 0.000000, 0.000000
1.128000, 31.737669, 10.530704, 0.002783, 0.000000, 0.000000
1.130000, 31.758599, 10.501291, 0.002783, 0.000000, 0.000000
1.132000, 31.779470, 10.471933, 0.002783, 0.000000, 0.000000
1.134000, 31.800283, 10.442630, 0.002782, 0.000000, 0.000000
1.136000, 31.821037, 10.413382, 0.002782, 0.000000, 0.000000
1.138000, 31.841732, 10.384188, 0.002782, 0.000000, 0.000000
1.140000, 31.862369, 10.355049, 0.002781, 0.000000, 0.000000
1.142000, 31.882948, 10.325963, 0.002781, 0.000000, 0.000000
1.144000, 31.903469, 10.296931, 0.002781, 0.000000, 0.000000
1.146000, 31.923931, 10.267953, 0.002781, 0.000000, 0.000000
1.148000, 31.944336, 10.239028, 0.002780, 0.000000, 0.000000
1.150000, 31.964683, 10.210157, 0.002780, 0.000000, 0.000000
1.152000, 31.984972, 10.181338, 0.002780, 0.000000, 0.000000
1.154000, 32.005204, 10.152571, 0.002779, 0.000000, 0.000000
1.156000, 32.025378, 10.123857, 0.002779, 0.000000, 0.000000
1.158000, 32.045494, 10.095195, 0.002779, 0.000000, 0.000000
1.160000, 32.065553, 10.066585, 0.002779, 0.000000, 0.000000
1.162000, 32.085556, 10.038026, 0.002778, 0.000000, 0.000000
1.164000, 32.105501, 10.009519, 0.002778, 0.000000, 0.000000
1.166000, 32.125388, 9.981063, 0.002778, 0.000000, 0.000000
1.168000, 32.145220, 9.952657, 0.002777, 0.000000, 0.000000
1.170000, 32.164994, 9.924303, 0.002777, 0.000000, 0.000000
1.172000, 32.184711, 9.895999, 0.002777, 0.000000, 0.000000
1.174000, 32.204372, 9.867745, 0.002777, 0.000000, 0.000000
1.176000, 32.223977, 9.839541, 0.002776, 0.000000, 0.000000
1.178000, 32.243525, 9.811387, 0.002776, 0.000000, 0.000000
1.180000, 32.263016, 9.783282, 0.002776, 0.000000, 0.000000
1.182000, 32.282452, 9.755227, 0.002775, 0.000000, 0.000000
1.184000, 32.301831, 9.727221, 0.002775, 0.000000, 0.000000
1.186000, 32.321155, 9.699264, 0.002775, 0.000000, 0.000000
1.188000, 32.340422, 9.671355, 0.002775, 0.000000, 0.000000
1.190000, 32.359634, 9.643495, 0.002774, 0.000000, 0.000000
1.192000, 32.378789, 9.615683, 0.002774, 0.000000, 0.000000
1.194000, 32.397890, 9.587919, 0.002774, 0.000000, 0.000000
1.196000, 32.416934, 9.560203, 0.002773, 0.000000, 0.000000
1.198000, 32.435924, 9.532535, 0.002773, 0.000000, 0.000000
1.200000, 32.454858, 9.504913, 0.002773, 0.000000, 0.000000
1.202000, 32.473736, 9.477339, 0.002773, 0.000000, 0.000000
1.204000, 32.492560, 9.449812, 0.002772, 0.000000, 0.000000
1.206000, 32.511328, 9.422332, 0.002772, 0.000000, 0.000000
1.208000, 32.530041, 9.394898, 0.002772, 0.000000, 0.000000
1.210000, 32.548700, 9.367511, 0.002771, 0.000000, 0.000000
1.212000, 32.567304, 9.340169, 0.002771, 0.000000, 0.000000
1.214000, 32.585853, 9.312874, 0.002771, 0.000000, 0.000000
1.216000, 32.604347, 9.285624, 0.002771, 0.000000, 0.000000
1.218000, 32.622787, 9.258420, 0.002770, 0.000000, 0.000000
1.220000, 32.641172, 9.231260, 0.002770, 0.000000, 0.000000
1.222000, 32.659503, 9.204146, 0.002770, 0.000000, 0.000000
1.224000, 32.677780, 9.177077, 0.002770, 0.000000, 0.000000
1.226000, 32.696003, 9.150053, 0.002769, 0.000000, 0.000000
1.228000, 32.714171, 9.123073, 0.002769, 0.000000, 0.000000
1.230000, 32.732286, 9.096137, 0.002769, 0.000000, 0.000000
1.232000, 32.750347, 9.069246, 0.002768, 0.000000, 0.000000
1.234000, 32.768354, 9.042398, 0.002768, 0.000000, 0.000000
1.236000, 32.786307, 9.015594, 0.002768, 0.000000, 0.000000
1.238000, 32.804206, 8.988834, 0.002768, 0.000000, 0.000000
1.240000, 32.822052, 8.962116, 0.002767, 0.000000, 0.000000
1.242000, 32.839845, 8.935442, 0.002767, 0.000000, 0.000000
1.244000, 32.857584, 8.908811, 0.002767, 0.000000, 0.000000
1.246000, 32.875269, 8.882223, 0.002767, 0.000000, 0.000000
1.248000, 32.892902, 8.855677, 0.002766, 0.000000, 0.000000
1.250000, 32.910481, 8.829173, 0.002766, 0.000000, 0.000000
1.252000, 32.928008, 8.802712, 0.002766, 0.000000, 0.000000
1.254000, 32.945481, 8.776292, 0.002766, 0.000000, 0.000000
1.256000, 32.962901, 8.749914, 0.002765, 0.000000, 0.000000
1.258000, 32.980269, 8.723578, 0.002765, 0.000000, 0.000000
1.260000, 32.997584, 8.697284, 0.002765, 0.000000, 0.000000
1.262000, 33.014846, 8.671030, 0.002765, 0.000000, 0.000000
1.264000, 33.032056, 8.644818, 0.002764, 0.000000, 0.000000
1.266000, 33.049213, 8.618646, 0.002764, 0.000000, 0.000000
1.268000, 33.066318, 8.592515, 0.002764, 0.000000, 0.000000
1.270000, 33.083371, 8.566425, 0.002764, 0.000000, 0.000000
1.272000, 33.100371, 8.540375, 0.002764, 0.000000, 0.000000
1.274000, 33.117319, 8.514365, 0.002763, 0.000000, 0.000000
1.276000, 33.134215, 8.488395, 0.002763, 0.000000, 0.000000
1.278000, 33.151059, 8.462464, 0.002763, 0.000000, 0.000000
1.280000, 33.167851, 8.436574, 0.002763, 0.000000, 0.000000
1.282000, 33.184592, 8.410723, 0.002762, 0.000000, 0.000000
1.284000, 33.201280, 8.384911, 0.002762, 0.000000, 0.000000
1.286000, 33.217917, 8.359138, 0.002762, 0.000000, 0.000000
1.288000, 33.234502, 8.333404, 0.002762, 0.000000, 0.000000
1.290000, 33.251036, 8.307708, 0.002762, 0.000000, 0.000000
1.292000, 33.267518, 8.282052, 0.002761, 0.000000, 0.000000
1.294000, 33.283949, 8.256433, 0.002761, 0.000000, 0.000000
1.296000, 33.300329, 8.230853, 0.002761, 0.000000, 0.000000
1.298000, 33.316657, 8.205311, 0.002761, 0.000000, 0.000000
1.300000, 33.332934, 8.179807, 0.002761, 0.000000, 0.000000
1.302000, 33.349160, 8.154341, 0.002760, 0.000000, 0.000000
1.304000, 33.365335, 8.128912, 0.002760, 0.000000, 0.000000
1.306000, 33.381460, 8.103520, 0.002760, 0.000000, 0.000000
1.308000, 33.397533, 8.078166, 0.002760, 0.000000, 0.000000
1.310000, 33.413555, 8.052848, 0.002760, 0.000000, 0.000000
1.312000, 33.429527, 8.027568, 0.002759, 0.000000, 0.000000
1.314000, 33.445448, 8.002324, 0.002759, 0.000000, 0.000000
1.316000, 33.461319, 7.977117, 0.002759, 0.000000, 0.000000
1.318000, 33.477139, 7.951946, 0.002759, 0.000000, 0.000000
1.320000, 33.492909, 7.926812, 0.002759, 0.000000, 0.000000
1.322000, 33.508628, 7.901713, 0.002758, 0.000000, 0.000000
1.324000, 33.524297, 7.876651, 0.002758, 0.000000, 0.000000
1.326000, 33.539916, 7.851624, 0.002758, 0.000000, 0.000000
1.328000, 33.555484, 7.826633, 0.002758, 0.000000, 0.000000
1.330000, 33.571003, 7.801677, 0.002758, 0.000000, 0.000000
1.332000, 33.586472, 7.776757, 0.002757, 0.000000, 0.000000
1.334000, 33.601890, 7.751871, 0.002757, 0.000000, 0.000000
1.336000, 33.617259, 7.727021, 0.002757, 0.000000, 0.000000
1.338000, 33.632578, 7.702205, 0.002757, 0.000000, 0.000000
1.340000, 33.647847, 7.677424, 0.002757, 0.000000, 0.000000
1.342000, 33.663067, 7.652678, 0.002757, 0.000000, 0.000000
1.344000, 33.678237, 7.627966, 0.002756, 0.000000, 0.000000
1.346000, 33.693358, 7.603288, 0.002756, 0.000000, 0.000000
1.348000, 33.708429, 7.578644, 0.002756, 0.000000, 0.000000
1.350000, 33.723450, 7.554034, 0.002756, 0.000000, 0.000000
1.352000, 33.738423, 7.529458, 0.002756, 0.000000, 0.000000
1.354000, 33.753346, 7.504915, 0.002756, 0.000000, 0.000000
1.356000, 33.768220, 7.480406, 0.002755, 0.000000, 0.000000
1.358000, 33.783045, 7.455930, 0.002755, 0.000000, 0.000000
1.360000, 33.797820, 7.431487, 0.002755, 0.000000, 0.000000
1.362000, 33.812547, 7.407078, 0.002755, 0.000000, 0.000000
1.364000, 33.827225, 7.382701, 0.002755, 0.000000, 0.000000
1.366000, 33.841854, 7.358357, 0.002755, 0.000000, 0.000000
1.368000, 33.856434, 7.334045, 0.002754, 0.000000, 0.000000
1.370000, 33.870966, 7.309766, 0.002754, 0.000000, 0.000000
1.372000, 33.885448, 7.285519, 0.002754, 0.000000, 0.000000
1.374000, 33.899883, 7.261305, 0.002754, 0.000000, 0.000000
1.376000, 33.914268, 7.237122, 0.002754, 0.000000, 0.000000
1.378000, 33.928605, 7.212971, 0.002754, 0.000000, 0.000000
1.380000, 33.942894, 7.188852, 0.002753, 0.000000, 0.000000
1.382000, 33.957135, 7.164764, 0.002753, 0.000000, 0.000000
1.384000, 33.971327, 7.140708, 0.002753, 0.000000, 0.000000
1.386000, 33.985470, 7.116684, 0.002753, 0.000000, 0.000000
1.388000, 33.999566, 7.092690, 0.002753, 0.000000, 0.000000
1.390000, 34.013614, 7.068727, 0.002753, 0.000000, 0.000000
1.392000, 34.027613, 7.044796, 0.002753, 0.000000, 0.000000
1.394000, 34.041565, 7.020895, 0.002752, 0.000000, 0.000000
1.396000, 34.055468, 6.997024, 0.002752, 0.000000, 0.000000
1.398000, 34.069324, 6.973185, 0.002752, 0.000000, 0.000000
1.400000, 34.083132, 6.949375, 0.002752, 0.000000, 0.000000
1.402000, 34.096892, 6.925596, 0.002752, 0.000000, 0.000000
1.404000, 34.110605, 6.901847, 0.002752, 0.000000, 0.000000
1.406000, 34.124270, 6.878127, 0.002752, 0.000000, 0.000000
1.408000, 34.137887, 6.854438, 0.002751, 0.000000, 0.000000
1.410000, 34.151457, 6.830778, 0.002751, 0.000000, 0.000000
1.412000, 34.164979, 6.807148, 0.002751, 0.000000, 0.000000
1.414000, 34.178454, 6.783547, 0.002751, 0.000000, 0.000000
1.416000, 34.191882, 6.759976, 0.002751, 0.000000, 0.000000
1.418000, 34.205262, 6.736434, 0.002751, 0.000000, 0.000000
1.420000, 34.218595, 6.712920, 0.002751, 0.000000, 0.000000
1.422000, 34.231881, 6.689436, 0.002750, 0.000000, 0.000000
1.424000, 34.245120, 6.665980, 0.002750, 0.000000, 0.000000
1.426000, 34.258312, 6.642554, 0.002750, 0.000000, 0.000000
1.428000, 34.271456, 6.619155, 0.002750, 0.000000, 0.000000
1.430000, 34.284554, 6.595785, 0.002750, 0.000000, 0.000000
1.432000, 34.297605, 6.572444, 0.002750, 0.000000, 0.000000
1.434000, 34.310609, 6.549130, 0.002750, 0.000000, 0.000000
1.436000, 34.323567, 6.525845, 0.002749, 0.000000, 0.000000
1.438000, 34.336477, 6.502587, 0.002749, 0.000000, 0.000000
1.440000, 34.349341, 6.479358, 0.002749, 0.000000, 0.000000
1.442000, 34.362158, 6.456156, 0.002749, 0.000000, 0.000000
1.444000, 34.374929, 6.432981, 0.002749, 0.000000, 0.000000
1.446000, 34.387653, 6.409834, 0.002749, 0.000000, 0.000000
1.448000, 34.400331, 6.386714, 0.002749, 0.000000, 0.000000
1.450000, 34.412963, 6.363622, 0.002749, 0.000000, 0.000000
1.452000, 34.425548, 6.340556, 0.002748, 0.000000, 0.000000
1.454000, 34.438086, 6.317518, 0.002748, 0.000000, 0.000000
1.456000, 34.450579, 6.294506, 0.002748, 0.000000, 0.000000
1.458000, 34.463025, 6.271521, 0.002748, 0.000000, 0.000000
1.460000, 34.475425, 6.248563, 0.002748, 0.000000, 0.000000
1.462000, 34.487779, 6.225631, 0.002748, 0.000000, 0.000000
1.464000, 34.500087, 6.202726, 0.002748, 0.000000, 0.000000
1.466000, 34.512349, 6.179846, 0.002747, 0.000000, 0.000000
1.468000, 34.524566, 6.156993, 0.002747, 0.000000, 0.000000
1.470000, 34.536736, 6.134166, 0.002747, 0.000000, 0.000000
1.472000, 34.548860, 6.111365, 0.002747, 0.000000, 0.000000
1.474000, 34.560939, 6.088590, 0.002747, 0.000000, 0.000000
1.476000, 34.572972, 6.065840, 0.002747, 0.000000, 0.000000
1.478000, 34.584959, 6.043116, 0.002747, 0.000000, 0.000000
1.480000, 34.596901, 6.020418, 0.002747, 0.000000, 0.000000
1.482000, 34.608797, 5.997744, 0.002746, 0.000000, 0.000000
1.484000, 34.620647, 5.975096, 0.002746, 0.000000, 0.000000
1.486000, 34.632452, 5.952474, 0.002746, 0.000000, 0.000000
1.488000, 34.644212, 5.929876, 0.002746, 0.000000, 0.000000
1.490000, 34.655926, 5.907303, 0.002746, 0.000000, 0.000000
1.492000, 34.667594, 5.884755, 0.002746, 0.000000, 0.000000
1.494000, 34.679218, 5.862232, 0.002746, 0.000000, 0.000000
1.496000, 34.690796, 5.839733, 0.002745, 0.000000, 0.000000
1.498000, 34.702329, 5.817259, 0.002745, 0.000000, 0.000000
1.500000, 34.713817, 5.794809, 0.002745, 0.000000, 0.000000
1.502000, 34.725260, 5.772384, 0.002745, 0.000000, 0.000000
1.504000, 34.736658, 5.749982, 0.002745, 0.000000, 0.000000
1.506000, 34.748011, 5.727605, 0.002745, 0.000000, 0.000000
1.508000, 34.759318, 5.705252, 0.002745, 0.000000, 0.000000
1.510000, 34.770581, 5.682923, 0.002744, 0.000000, 0.000000
1.512000, 34.781799, 5.660617, 0.002744, 0.000000, 0.000000
1.514000, 34.792972, 5.638335, 0.002744, 0.000000, 0.000000
1.516000, 34.804101, 5.616077, 0.002744, 0.000000, 0.000000
1.518000, 34.815184, 5.593842, 0.002744, 0.000000, 0.000000
1.520000, 34.826223, 5.571631, 0.002744, 0.000000, 0.000000
1.522000, 34.837217, 5.549442, 0.002744, 0.000000, 0.000000
1.524000, 34.848167, 5.527277, 0.002743, 0.000000, 0.000000
1.526000, 34.859072, 5.505136, 0.002743, 0.000000, 0.000000
1.528000, 34.869933, 5.483017, 0.002743, 0.000000, 0.000000
1.530000, 34.880749, 5.460921, 0.002743, 0.000000, 0.000000
1.532000, 34.891521, 5.438847, 0.002743, 0.000000, 0.000000
1.534000, 34.902248, 5.416797, 0.002743, 0.000000, 0.000000
1.536000, 34.912931, 5.394769, 0.002743, 0.000000, 0.000000
1.538000, 34.923570, 5.372763, 0.002742, 0.000000, 0.000000
1.540000, 34.934164, 5.350780, 0.002742, 0.000000, 0.000000
1.542000, 34.944714, 5.328819, 0.002742, 0.000000, 0.000000
1.544000, 34.955220, 5.306881, 0.002742, 0.000000, 0.000000
1.546000, 34.965682, 5.284964, 0.002742, 0.000000, 0.000000
1.548000, 34.976100, 5.263070, 0.002742, 0.000000, 0.000000
1.550000, 34.986474, 5.241198, 0.002741, 0.000000, 0.000000
1.552000, 34.996804, 5.219347, 0.002741, 0.000000, 0.000000
1.554000, 35.007089, 5.197518, 0.002741, 0.000000, 0.000000
1.556000, 35.017331, 5.175711, 0.002741, 0.000000, 0.000000
1.558000, 35.027529, 5.153926, 0.002741, 0.000000, 0.000000
1.560000, 35.037684, 5.132162, 0.002741, 0.000000, 0.000000
1.562000, 35.047794, 5.110419, 0.002740, 0.000000, 0.000000
1.564000, 35.057861, 5.088698, 0.002740, 0.000000, 0.000000
1.566000, 35.067883, 5.066998, 0.002740, 0.000000, 0.000000
1.568000, 35.077863, 5.045319, 0.002740, 0.000000, 0.000000
1.570000, 35.087798, 5.023661, 0.002740, 0.000000, 0.000000
1.572000, 35.097690, 5.002024, 0.002740, 0.000000, 0.000000
1.574000, 35.107538, 4.980408, 0.002739, 0.000000, 0.000000
1.576000, 35.117343, 4.958813, 0.002739, 0.000000, 0.000000
1.578000, 35.127105, 4.937238, 0.002739, 0.000000, 0.000000
1.580000, 35.136823, 4.915685, 0.002739, 0.000000, 0.000000
1.582000, 35.146497, 4.894151, 0.002739, 0.000000, 0.000000
1.584000, 35.156128, 4.872639, 0.002739, 0.000000, 0.000000
1.586000, 35.165716, 4.851146, 0.002738, 0.000000, 0.000000
1.588000, 35.175261, 4.829674, 0.002738, 0.000000, 0.000000
1.590000, 35.184762, 4.808223, 0.002738, 0.000000, 0.000000
1.592000, 35.194220, 4.786791, 0.002738, 0.000000, 0.000000
1.594000, 35.203635, 4.765379, 0.002738, 0.000000, 0.000000
1.596000, 35.213007, 4.743988, 0.002737, 0.000000, 0.000000
1.598000, 35.222335, 4.722616, 0.002737, 0.000000, 0.000000
1.600000, 35.231621, 4.701265, 0.002737, 0.000000, 0.000000
1.602000, 35.240863, 4.679933, 0.002737, 0.000000, 0.000000
1.604000, 35.250063, 4.658620, 0.002737, 0.000000, 0.000000
1.606000, 35.259219, 4.637328, 0.002737, 0.000000, 0.000000
1.608000, 35.268333, 4.616055, 0.002736, 0.000000, 0.000000
1.610000, 35.277404, 4.594801, 0.002736, 0.000000, 0.000000
1.612000, 35.286432, 4.573567, 0.002736, 0.000000, 0.000000
1.614000, 35.295417, 4.552352, 0.002736, 0.000000, 0.000000
1.616000, 35.304359, 4.531156, 0.002736, 0.000000, 0.000000
1.618000, 35.313258, 4.509980, 0.002735, 0.000000, 0.000000
1.620000, 35.322115, 4.488823, 0.002735, 0.000000, 0.000000
1.622000, 35.330929, 4.467684, 0.002735, 0.000000, 0.000000
1.624000, 35.339701, 4.446565, 0.002735, 0.000000, 0.000000
1.626000, 35.348430, 4.425465, 0.002734, 0.000000, 0.000000
1.628000, 35.357116, 4.404383, 0.002734, 0.000000, 0.000000
1.630000, 35.365760, 4.383321, 0.002734, 0.000000, 0.000000
1.632000, 35.374361, 4.362277, 0.002734, 0.000000, 0.000000
1.634000, 35.382920, 4.341252, 0.002734, 0.000000, 0.000000
1.636000, 35.391436, 4.320245, 0.002733, 0.000000, 0.000000
1.638000, 35.399910, 4.299257, 0.002733, 0.000000, 0.000000
1.640000, 35.408341, 4.278287, 0.002733, 0.000000, 0.000000
1.642000, 35.416730, 4.257336, 0.002733, 0.000000, 0.000000
1.644000, 35.425077, 4.236403, 0.002732, 0.000000, 0.000000
1.646000, 35.433382, 4.215488, 0.002732, 0.000000, 0.000000
1.648000, 35.441644, 4.194592, 0.002732, 0.000000, 0.000000
1.650000, 35.449864, 4.173714, 0.002732, 0.000000, 0.000000
1.652000, 35.458042, 4.152854, 0.002732, 0.000000, 0.000000
1.654000, 35.466178, 4.132011, 0.002731, 0.000000, 0.000000
1.656000, 35.474271, 4.111187, 0.002731, 0.000000, 0.000000
1.658000, 35.482323, 4.090381, 0.002731, 0.000000, 0.000000
1.660000, 35.490332, 4.069593, 0.002731, 0.000000, 0.000000
1.662000, 35.498299, 4.048823, 0.002730, 0.000000, 0.000000
1.664000, 35.506225, 4.028070, 0.002730, 0.000000, 0.000000
1.666000, 35.514108, 4.007335, 0.002730, 0.000000, 0.000000
1.668000, 35.521950, 3.986618, 0.002730, 0.000000, 0.000000
1.670000, 35.529749, 3.965919, 0.002729, 0.000000, 0.000000
1.672000, 35.537507, 3.945237, 0.002729, 0.000000, 0.000000
1.674000, 35.545223, 3.924573, 0.002729, 0.000000, 0.000000
1.676000, 35.552897, 3.903926, 0.002728, 0.000000, 0.000000
1.678000, 35.560529, 3.883296, 0.002728, 0.000000, 0.000000
1.680000, 35.568120, 3.862684, 0.002728, 0.000000, 0.000000
1.682000, 35.575668, 3.842090, 0.002728, 0.000000, 0.000000
1.684000, 35.583175, 3.821512, 0.002727, 0.000000, 0.000000
1.686000, 35.590641, 3.800953, 0.002727, 0.000000, 0.000000
1.688000, 35.598064, 3.780410, 0.002727, 0.000000, 0.000000
1.690000, 35.605446, 3.759884, 0.002727, 0.000000, 0.000000
1.692000, 35.612787, 3.739376, 0.002726, 0.000000, 0.000000
1.694000, 35.620086, 3.718885, 0.002726, 0.000000, 0.000000
1.696000, 35.627343, 3.698411, 0.002726, 0.000000, 0.000000
1.698000, 35.634559, 3.677954, 0.002725, 0.000000, 0.000000
1.700000, 35.641733, 3.657514, 0.002725, 0.000000, 0.000000
1.702000, 35.648866, 3.637091, 0.002725, 0.000000, 0.000000
1.704000, 35.655958, 3.616685, 0.002725, 0.000000, 0.000000
1.706000, 35.663008, 3.596296, 0.002724, 0.000000, 0.000000
1.708000, 35.670017, 3.575924, 0.002724, 0.000000, 0.000000
1.710000, 35.676984, 3.555569, 0.002724, 0.000000, 0.000000
1.712000, 35.683910, 3.535231, 0.002723, 0.000000, 0.000000
1.714000, 35.690795, 3.514910, 0.002723, 0.000000, 0.000000
1.716000, 35.697638, 3.494605, 0.002723, 0.000000, 0.000000
1.718000, 35.704441, 3.474317, 0.002722, 0.000000, 0.000000
1.720000, 35.711202, 3.454047, 0.002722, 0.000000, 0.000000
1.722000, 35.717922, 3.433793, 0.002722, 0.000000, 0.000000
1.724000, 35.724600, 3.413555, 0.002721, 0.000000, 0.000000
1.726000, 35.731238, 3.393335, 0.002721, 0.000000, 0.000000
1.728000, 35.737834, 3.373131, 0.002721, 0.000000, 0.000000
1.730000, 35.744390, 3.352944, 0.002720, 0.000000, 0.000000
1.732000, 35.750904, 3.332774, 0.002720, 0.000000, 0.000000
1.734000, 35.757377, 3.312621, 0.002720, 0.000000, 0.000000
1.736000, 35.763809, 3.292484, 0.002719, 0.000000, 0.000000
1.738000, 35.770201, 3.272364, 0.002719, 0.000000, 0.000000
1.740000, 35.776551, 3.252261, 0.002719, 0.000000, 0.000000
1.742000, 35.782860, 3.232175, 0.002718, 0.000000, 0.000000
1.744000, 35.789129, 3.212105, 0.002718, 0.000000, 0.000000
1.746000, 35.795356, 3.192052, 0.002718, 0.000000, 0.000000
1.748000, 35.801543, 3.172016, 0.002717, 0.000000, 0.000000
1.750000, 35.807688, 3.151997, 0.002717, 0.000000, 0.000000
1.752000, 35.813793, 3.131994, 0.002716, 0.000000, 0.000000
1.754000, 35.819858, 3.112009, 0.002716, 0.000000, 0.000000
1.756000, 35.825881, 3.092040, 0.002716, 0.000000, 0.000000
1.758000, 35.831863, 3.072088, 0.002715, 0.000000, 0.000000
1.760000, 35.837805, 3.052154, 0.002715, 0.000000, 0.000000
1.762000, 35.843706, 3.032236, 0.002715, 0.000000, 0.000000
1.764000, 35.849567, 3.012335, 0.002714, 0.000000, 0.000000
1.766000, 35.855387, 2.992451, 0.002714, 0.000000, 0.000000
1.768000, 35.861166, 2.972584, 0.002713, 0.000000, 0.000000
1.770000, 35.866904, 2.952734, 0.002713, 0.000000, 0.000000
1.772000, 35.872602, 2.932902, 0.002713, 0.000000, 0.000000
1.774000, 35.878260, 2.913086, 0.002712, 0.000000, 0.000000
1.776000, 35.883876, 2.893288, 0.002712, 0.000000, 0.000000
1.778000, 35.889453, 2.873507, 0.002711, 0.000000, 0.000000
1.780000, 35.894988, 2.853744, 0.002711, 0.000000, 0.000000
1.782000, 35.900484, 2.833998, 0.002711, 0.000000, 0.000000
1.784000, 35.905938, 2.814269, 0.002710, 0.000000, 0.000000
1.786000, 35.911353, 2.794558, 0.002710, 0.000000, 0.000000
1.788000, 35.916726, 2.774865, 0.002709, 0.000000, 0.000000
1.790000, 35.922060, 2.755190, 0.002709, 0.000000, 0.000000
1.792000, 35.927353, 2.735532, 0.002708, 0.000000, 0.000000
1.794000, 35.932605, 2.715892, 0.002708, 0.000000, 0.000000
1.796000, 35.937818, 2.696270, 0.002708, 0.000000, 0.000000
1.798000, 35.942990, 2.676667, 0.002707, 0.000000, 0.000000
1.800000, 35.948121, 2.657081, 0.002707, 0.000000, 0.000000
1.802000, 35.953213, 2.637514, 0.002706, 0.000000, 0.000000
1.804000, 35.958264, 2.617966, 0.002706, 0.000000, 0.000000
1.806000, 35.963274, 2.598436, 0.002705, 0.000000, 0.000000
1.808000, 35.968245, 2.578924, 0.002705, 0.000000, 0.000000
1.810000, 35.973175, 2.559432, 0.002704, 0.000000, 0.000000
1.812000, 35.978065, 2.539958, 0.002704, 0.000000, 0.000000
1.814000, 35.982915, 2.520504, 0.002703, 0.000000, 0.000000
1.816000, 35.987725, 2.501069, 0.002703, 0.000000, 0.000000
1.818000, 35.992495, 2.481653, 0.002702, 0.000000, 0.000000
1.820000, 35.997224, 2.462257, 0.002702, 0.000000, 0.000000
1.822000, 36.001913, 2.442881, 0.002701, 0.000000, 0.000000
1.824000, 36.006563, 2.423525, 0.002701, 0.000000, 0.000000
1.826000, 36.011172, 2.404188, 0.002700, 0.000000, 0.000000
1.828000, 36.015741, 2.384873, 0.002700, 0.000000, 0.000000
1.830000, 36.020270, 2.365578, 0.002699, 0.000000, 0.000000
1.832000, 36.024759, 2.346303, 0.002699, 0.000000, 0.000000
1.834000, 36.029208, 2.327050, 0.002698, 0.000000, 0.000000
1.836000, 36.033617, 2.307818, 0.002698, 0.000000, 0.000000
1.838000, 36.037986, 2.288608, 0.002697, 0.000000, 0.000000
1.840000, 36.042315, 2.269419, 0.002697, 0.000000, 0.000000
1.842000, 36.046604, 2.250252, 0.002696, 0.000000, 0.000000
1.844000, 36.050853, 2.231108, 0.002696, 0.000000, 0.000000
1.846000, 36.055062, 2.211986, 0.002695, 0.000000, 0.000000
1.848000, 36.059231, 2.192888, 0.002695, 0.000000, 0.000000
1.850000, 36.063361, 2.173812, 0.002694, 0.000000, 0.000000
1.852000, 36.067450, 2.154760, 0.002694, 0.000000, 0.000000
1.854000, 36.071500, 2.135733, 0.002693, 0.000000, 0.000000
1.856000, 36.075510, 2.116729, 0.002693, 0.000000, 0.000000
1.858000, 36.079480, 2.097750, 0.002692, 0.000000, 0.000000
1.860000, 36.083410, 2.078796, 0.002691, 0.000000, 0.000000
1.862000, 36.087301, 2.059868, 0.002691, 0.000000, 0.000000
1.864000, 36.091151, 2.040966, 0.002690, 0.000000, 0.000000
1.866000, 36.094962, 2.022090, 0.002690, 0.000000, 0.000000
1.868000, 36.098733, 2.003241, 0.002689, 0.000000, 0.000000
1.870000, 36.102465, 1.984419, 0.002689, 0.000000, 0.000000
1.872000, 36.106156, 1.965626, 0.002688, 0.000000, 0.000000
1.874000, 36.109808, 1.946860, 0.002687, 0.000000, 0.000000
1.876000, 36.113420, 1.928124, 0.002687, 0.000000, 0.000000
1.878000, 36.116993, 1.909417, 0.002686, 0.000000, 0.000000
1.880000, 36.120526, 1.890740, 0.002686, 0.000000, 0.000000
1.882000, 36.124019, 1.872093, 0.002685, 0.000000, 0.000000
1.884000, 36.127472, 1.853479, 0.002684, 0.000000, 0.000000
1.886000, 36.130886, 1.834896, 0.002684, 0.000000, 0.000000
1.888000, 36.134261, 1.816346, 0.002683, 0.000000, 0.000000
1.890000, 36.137595, 1.797830, 0.002683, 0.000000, 0.000000
1.892000, 36.140890, 1.779348, 0.002682, 0.000000, 0.000000
1.894000, 36.144146, 1.760901, 0.002681, 0.000000, 0.000000
1.896000, 36.147362, 1.742490, 0.002681, 0.000000, 0.000000
1.898000, 36.150538, 1.724115, 0.002680, 0.000000, 0.000000
1.900000, 36.153675, 1.705779, 0.002679, 0.000000, 0.000000
1.902000, 36.156772, 1.687481, 0.002679, 0.000000, 0.000000
1.904000, 36.159830, 1.669223, 0.002678, 0.000000, 0.000000
1.906000, 36.162848, 1.651006, 0.002677, 0.000000, 0.000000
1.908000, 36.165827, 1.632831, 0.002677, 0.000000, 0.000000
1.910000, 36.168766, 1.614698, 0.002676, 0.000000, 0.000000
1.912000, 36.171666, 1.596610, 0.002675, 0.000000, 0.000000
1.914000, 36.174526, 1.578568, 0.002675, 0.000000, 0.000000
1.916000, 36.177347, 1.560572, 0.002674, 0.000000, 0.000000
1.918000, 36.180128, 1.542624, 0.002673, 0.000000, 0.000000
1.920000, 36.182870, 1.524726, 0.002673, 0.000000, 0.000000
1.922000, 36.185572, 1.506879, 0.002672, 0.000000, 0.000000
1.924000, 36.188235, 1.489085, 0.002671, 0.000000, 0.000000
1.926000, 36.190859, 1.471346, 0.002671, 0.000000, 0.000000
1.928000, 36.193443, 1.453662, 0.002670, 0.000000, 0.000000
1.930000, 36.195988, 1.436036, 0.002669, 0.000000, 0.000000
1.932000, 36.198493, 1.418470, 0.002669, 0.000000, 0.000000
1.934000, 36.200959, 1.400966, 0.002668, 0.000000, 0.000000
1.936000, 36.203386, 1.383526, 0.002667, 0.000000, 0.000000
1.938000, 36.205773, 1.366152, 0.002666, 0.000000, 0.000000
1.940000, 36.208121, 1.348846, 0.002666, 0.000000, 0.000000
1.942000, 36.210430, 1.331611, 0.002665, 0.000000, 0.000000
1.944000, 36.212699, 1.314449, 0.002664, 0.000000, 0.000000
1.946000, 36.214929, 1.297364, 0.002664, 0.000000, 0.000000
1.948000, 36.217119, 1.280357, 0.002663, 0.000000, 0.000000
1.950000, 36.219271, 1.263432, 0.002662, 0.000000, 0.000000
1.952000, 36.221383, 1.246592, 0.002661, 0.000000, 0.000000
1.954000, 36.223455, 1.229839, 0.002661, 0.000000, 0.000000
1.956000, 36.225489, 1.213179, 0.002660, 0.000000, 0.000000
1.958000, 36.227483, 1.196613, 0.002659, 0.000000, 0.000000
1.960000, 36.229438, 1.180146, 0.002658, 0.000000, 0.000000
1.962000, 36.231353, 1.163782, 0.002658, 0.000000, 0.000000
1.964000, 36.233230, 1.147525, 0.002657, 0.000000, 0.000000
1.966000, 36.235067, 1.131380, 0.002656, 0.000000, 0.000000
1.968000, 36.236865, 1.115350, 0.002655, 0.000000, 0.000000
1.970000, 36.238623, 1.099441, 0.002654, 0.000000, 0.000000
1.972000, 36.240343, 1.083658, 0.002654, 0.000000, 0.000000
1.974000, 36.242023, 1.068006, 0.002653, 0.000000, 0.000000
1.976000, 36.243664, 1.052490, 0.002652, 0.000000, 0.000000
1.978000, 36.245265, 1.037118, 0.002651, 0.000000, 0.000000
1.980000, 36.246828, 1.021894, 0.002651, 0.000000, 0.000000
1.982000, 36.248351, 1.006826, 0.002650, 0.000000, 0.000000
1.984000, 36.249835, 0.991920, 0.002649, 0.000000, 0.000000
1.986000, 36.251280, 0.977184, 0.002648, 0.000000, 0.000000
1.988000, 36.252686, 0.962625, 0.002647, 0.000000, 0.000000
1.990000, 36.254052, 0.948251, 0.002646, 0.000000, 0.000000
1.992000, 36.255380, 0.934070, 0.002646, 0.000000, 0.000000
1.994000, 36.256668, 0.920091, 0.002645, 0.000000, 0.000000
1.996000, 36.257917, 0.906324, 0.002644, 0.000000, 0.000000
1.998000, 36.259127, 0.892777, 0.002643, 0.000000, 0.000000
2.000000, 36.260297, 0.879461, 0.002642, 0.000000, 0.000000
2.002000, 36.261429, 0.866386, 0.002642, 0.000000, 0.000000
2.004000, 36.262521, 0.853563, 0.002641, 0.000000, 0.000000
2.006000, 36.263574, 0.841003, 0.002640, 0.000000, 0.000000
2.008000, 36.264589, 0.828719, 0.002639, 0.000000, 0.000000
2.010000, 36.265563, 0.816722, 0.002638, 0.000000, 0.000000
2.012000, 36.266499, 0.805025, 0.002637, 0.000000, 0.000000
2.014000, 36.267396, 0.793641, 0.002636, 0.000000, 0.000000
2.016000, 36.268254, 0.782583, 0.002636, 0.000000, 0.000000
2.018000, 36.269072, 0.771865, 0.002635, 0.000000, 0.000000
2.020000, 36.269851, 0.761502, 0.002634, 0.000000, 0.000000
2.022000, 36.270591, 0.751508, 0.002633, 0.000000, 0.000000
2.024000, 36.271293, 0.741897, 0.002632, 0.000000, 0.000000
2.026000, 36.271954, 0.732684, 0.002631, 0.000000, 0.000000
2.028000, 36.272577, 0.723885, 0.002630, 0.000000, 0.000000
2.030000, 36.273161, 0.715514, 0.002629, 0.000000, 0.000000
2.032000, 36.273706, 0.707586, 0.002629, 0.000000, 0.000000
2.034000, 36.274211, 0.700117, 0.002628, 0.000000, 0.000000
2.036000, 36.274678, 0.693120, 0.002627, 0.000000, 0.000000
2.038000, 36.275105, 0.686611, 0.002626, 0.000000, 0.000000
2.040000, 36.275493, 0.680601, 0.002625, 0.000000, 0.000000
2.042000, 36.275843, 0.675106, 0.002624, 0.000000, 0.000000
2.044000, 36.276153, 0.670137, 0.002623, 0.000000, 0.000000
2.046000, 36.276424, 0.665705, 0.002622, 0.000000, 0.000000
2.048000, 36.276656, 0.661822, 0.002621, 0.000000, 0.000000
2.050000, 36.276849, 0.658496, 0.002620, 0.000000, 0.000000
2.052000, 36.277002, 0.655736, 0.002620, 0.000000, 0.000000
2.054000, 36.277117, 0.653548, 0.002619, 0.000000, 0.000000
2.056000, 36.277193, 0.651939, 0.002618, 0.000000, 0.000000
2.058000, 36.277229, 0.650912, 0.002617, 0.000000, 0.000000
